/Users/mbollemeijer/Documents/prive/projects/java/Saneium/modules/dashboard/src/main/java/org/saneium/dashboard/config/DashboardModuleServletConfig.java
/Users/mbollemeijer/Documents/prive/projects/java/Saneium/modules/dashboard/src/main/java/org/saneium/dashboard/package-info.java
/Users/mbollemeijer/Documents/prive/projects/java/Saneium/modules/dashboard/src/main/java/org/saneium/dashboard/controller/DashboardController.java
/Users/mbollemeijer/Documents/prive/projects/java/Saneium/modules/dashboard/src/main/java/org/saneium/dashboard/config/DashboardConfig.java
